…
~~~
interviews_ch <- interviews %>%
    filter(village == "Chirodzo") %>%
    select(village:respondent_wall_type)

interviews_ch
~~~
{: .language-r}



~~~
# A tibble: 39 × 5
   village  interview_date      no_membrs years_liv respondent_wall_type
   <chr>    <dttm>                  <dbl>     <dbl> <chr>               
 1 Chirodzo 2016-11-16 00:00:00        12        70 burntbricks         
 2 Chirodzo 2016-11-16 00:00:00         8         6 burntbricks         
 3 Chirodzo 2016-12-16 00:00:00        12        23 burntbricks         
 4 Chirodzo 2016-11-17 00:00:00         8        18 burntbricks         
 5 Chirodzo 2016-11-17 00:00:00         5        45 muddaub             
 6 Chirodzo 2016-11-17 00:00:00         6        23 sunbricks           
 7 Chirodzo 2016-11-17 00:00:00         3         8 burntbricks         
 8 Chirodzo 2016-11-17 00:00:00         7        29 muddaub             
 9 Chirodzo 2016-11-17 00:00:00         2         6 muddaub             
10 Chirodzo 2016-11-17 00:00:00         9         7 muddaub             
# … with 29 more rows
…
>
> > ## Solution
> >
> > 
> > ~~~
> > interviews %>%
> >     filter(memb_assoc == "yes") %>%
> >     select(affect_conflicts, liv_count, no_meals)
> > ~~~
> > {: .language-r}
> > 
> > 
> > 
> > ~~~
> > # A tibble: 33 × 3
> >    affect_conflicts liv_count no_meals
> >    <chr>                <dbl>    <dbl>
> >  1 once                     3        2
> >  2 never                    2        2
> >  3 never                    2        3
> >  4 once                     3        2
> >  5 frequently               1        3
> >  6 more_once                5        2
> >  7 more_once                3        2
> >  8 more_once                2        3
> >  9 once                     3        3
> > 10 never                    3        3
> > # … with 23 more rows
…
